{"page":1,"total_results":916,"total_pages":46,"results":[{"vote_count":1,"id":581214,"video":false,"vote_average":10,"title":"Purpurinis rūkas","popularity":1.285,"poster_path":"\/yiM9je2dkXwugPPXk9WUQvsUPYF.jpg","original_language":"lt","original_title":"Purpurinis rūkas","genre_ids":[18,36],"backdrop_path":"\/eHnVWy86DiusUlxgfkmM8bdrch9.jpg","adult":false,"overview":"'Purple Smoke' tells the complex story of Lithuanian Jew Jozef, partisan commander Vlad and their two beloved Janes.","release_date":"2019-02-06"},{"vote_count":1,"id":573568,"video":false,"vote_average":10,"title":"Club der roten Bänder - Wie alles begann","popularity":5.915,"poster_path":"\/1XeIKNHBhyv7iGJcfs6SvsKYeM.jpg","original_language":"de","original_title":"Club der roten Bänder - Wie alles begann","genre_ids":[18],"backdrop_path":null,"adult":false,"overview":"","release_date":"2019-02-14"},{"vote_count":1,"id":571034,"video":false,"vote_average":10,"title":"This Is Where I Meet You","popularity":0.756,"poster_path":"\/gfU67qGtFOIyXWwYrZ498994jvh.jpg","original_language":"de","original_title":"This Is Where I Meet You","genre_ids":[18],"backdrop_path":null,"adult":false,"overview":"Feature film.","release_date":"2019-01-15"},{"vote_count":1,"id":565885,"video":false,"vote_average":10,"title":"Vantha Rajavathaan Varuven","popularity":3.532,"poster_path":"\/iZew5hsN6zKyOkBl2a0U5oqlkEO.jpg","original_language":"ta","original_title":"வந்தா ராஜாவாதான் வருவேன்","genre_ids":[18,28],"backdrop_path":"\/ck7jY0CnSzQqTm1pjTtwt8AruI0.jpg","adult":false,"overview":"The young heir of a rich family embarks on a journey to effect a reconciliation between estranged family members.","release_date":"2019-02-01"},{"vote_count":1,"id":565311,"video":false,"vote_average":10,"title":"Imaginary Order","popularity":3.571,"poster_path":"\/ibjOwbGVk7kT87RSxnoAF4f47MC.jpg","original_language":"en","original_title":"Imaginary Order","genre_ids":[18],"backdrop_path":null,"adult":false,"overview":"The sexual, psychological, and moral unraveling of an obsessive-compulsive suburban mom.","release_date":"2019-01-26"},{"vote_count":1,"id":526426,"video":false,"vote_average":10,"title":"Made in Abyss: Journey's Dawn","popularity":3.448,"poster_path":"\/2eORQu53KDtej7VvAm4462PmwT7.jpg","original_language":"ja","original_title":"メイドインアビス 旅立ちの夜明け","genre_ids":[16,12,878,9648,18],"backdrop_path":"\/cXcuFmyZGJWlBX5ww92Heaa9S9u.jpg","adult":false,"overview":"The enigmatic Abyss is an unforgiving and deadly place. Despite the dangers, it still captures the imagination of explorers such as Riko who wishes to follow in her mother's footsteps and trains hard to become a Cave Raider. One day, she receives news that her mother died in the Abyss, yet a mysterious note tells Riko that her mother may still be alive. Vowing to uncover the truth about her mother's fate, Riko embarks on a journey with a humanoid robot boy named Reg. Together, they will discover if they have what it takes to survive where so many others have perished.","release_date":"2019-01-04"},{"vote_count":1,"id":505929,"video":false,"vote_average":10,"title":"90 ML","popularity":5.887,"poster_path":"\/1fLid9zK4L7CawRAkpLrfkkQZhh.jpg","original_language":"ta","original_title":"90 ML","genre_ids":[35,18],"backdrop_path":"\/qQwtyjZO5q1CpBNAZiur0HIm19b.jpg","adult":false,"overview":"Thamara, Paru, Kajal and Suganya are four friends who are rather tired of their uneventful routine. However, things take a turn for the better with the arrival of the spirited and outgoing Rita, a young woman who encourages them to live their lives to the fullest.","release_date":"2019-03-01"},{"vote_count":10,"id":416144,"video":false,"vote_average":9.5,"title":"Hotel Mumbai","popularity":13.446,"poster_path":"\/fo4qGCFmzpkGHW60JINlhIpGUXw.jpg","original_language":"en","original_title":"Hotel Mumbai","genre_ids":[53,18],"backdrop_path":"\/2WgDlJnkc1klLr1WuCuUTzzmNne.jpg","adult":false,"overview":"Based on the 2009 documentary Surviving Mumbai about the Mumbai attacks in 2008 at the Taj Mahal Palace Hotel in India.","release_date":"2019-03-14"},{"vote_count":1,"id":570086,"video":false,"vote_average":9.5,"title":"Brugklas - de tijd van m'n leven","popularity":1.97,"poster_path":"\/y2eHjAgjBYtuewzgMzzZJpCW36X.jpg","original_language":"nl","original_title":"Brugklas - de tijd van m'n leven","genre_ids":[10751,18,10749],"backdrop_path":"\/1Bjym3fsNHkFGGloFtHAyk2Bx3Q.jpg","adult":false,"overview":"","release_date":"2019-02-07"},{"vote_count":4,"id":535144,"video":false,"vote_average":9,"title":"Sonchiriya","popularity":3.507,"poster_path":"\/asMkY4Ov3sTyieLA91QwiiuJXuT.jpg","original_language":"hi","original_title":"सोनचिरिया","genre_ids":[80,28,18],"backdrop_path":"\/fJwHhMOJfxSWfZk45Z6OfpjOgTg.jpg","adult":false,"overview":"Story of a legion of dreaded, warring dacoits who once terrorised the Indian heartlands.","release_date":"2019-03-01"},{"vote_count":3,"id":505706,"video":false,"vote_average":9,"title":"The Golden Glove","popularity":4.324,"poster_path":"\/tfzBadp1NcniBw0FFxcVI4TJRYJ.jpg","original_language":"de","original_title":"Der goldene Handschuh","genre_ids":[18,53,27],"backdrop_path":null,"adult":false,"overview":"A serial killer strikes fear in the hearts of residents of Hamburg during the early 1970s.","release_date":"2019-02-21"},{"vote_count":3,"id":412865,"video":false,"vote_average":9,"title":"Peranbu","popularity":3.434,"poster_path":"\/uogOObqRReG91niJ2X7WNMpRkH8.jpg","original_language":"ta","original_title":"பேரன்பு","genre_ids":[28,18,10751],"backdrop_path":"\/colSf7p8fj9OfyNDibFsJHeLFMh.jpg","adult":false,"overview":"A single father tries to raise his daughter, who has cerebral palsy, even as she is beginning to wake up to her sexuality.","release_date":"2019-02-01"},{"vote_count":2,"id":572977,"video":false,"vote_average":9,"title":"Thirty","popularity":1.108,"poster_path":"\/rTIG6OS39cWj26WnnCUURwlTnps.jpg","original_language":"de","original_title":"Dreissig","genre_ids":[18],"backdrop_path":null,"adult":false,"overview":"Twenty-four hours with a group of friends on a Friday in October in Berlin’s district of Neukölln. Övünç is suffering from writer’s block, Pascal and Raha split up recently and are trying to stay friends. Kara constantly sublets her flat to keep herself moving. Henner spends the day in a bar and meets a girl by the name of Anja. That evening they celebrate Övünç’s birthday and drift together through the city’s nightlife. The film depicts six young people in their struggle with the daily grind of life in Berlin and the reality of turning thirty.","release_date":"2019-02-09"},{"vote_count":2,"id":417466,"video":false,"vote_average":9,"title":"Monos","popularity":1.633,"poster_path":"\/5jlOkOggXoGlzBRANGtDqajMCiE.jpg","original_language":"es","original_title":"Monos","genre_ids":[18,53],"backdrop_path":"\/zMTnqxQadz6KFysE20aoiLnFNFt.jpg","adult":false,"overview":"On a faraway mountaintop, eight kids with guns watch over a hostage and a conscripted milk cow.","release_date":"2019-02-10"},{"vote_count":1,"id":575872,"video":false,"vote_average":9,"title":"Our Wonderful Lives","popularity":2.618,"poster_path":"\/gfOf6ptZck6299wdqKTI7pl7eAH.jpg","original_language":"fr","original_title":"Nos Vies Formidables","genre_ids":[18],"backdrop_path":null,"adult":false,"overview":"Margot, Jeremy, Salome, Caesar, Sonia - They are between 18 and 50 years old. Everything separates them except the urgency to rebuild and restore the relationship to the other that the addiction has destroyed. Solidary, they have as rules, sharing, honesty, authenticity, sincerity, humanity. An incredible band of living people who are screaming loudly that we are doing better than others alone.","release_date":"2019-01-27"},{"vote_count":1,"id":530227,"video":false,"vote_average":9,"title":"A Young Man with High Potential","popularity":5.705,"poster_path":"\/x9J9HJ5cyZ6K8EpvfwrQou588zF.jpg","original_language":"en","original_title":"A Young Man with High Potential","genre_ids":[18,80],"backdrop_path":null,"adult":false,"overview":"Piet, who is studying computer science, is as inexperienced sexually as he is intelligent. When he notices that his feelings for Klara, a fellow student, are not really reciprocal, he is deeply hurt. After trying out sleeping pills on himself, he drugs Klara, with unexpected consequences.","release_date":"2019-03-07"},{"vote_count":6,"id":575351,"video":false,"vote_average":8.9,"title":"Kumbalangi Nights","popularity":3.577,"poster_path":"\/lJ3RvIirE2C7gdBKvPRaoQ3iCo2.jpg","original_language":"ml","original_title":"കുമ്പളങ്ങി നൈറ്റ്‌സ്","genre_ids":[35,18,10749],"backdrop_path":"\/8i8ml0LRdFT6LSaTMUG3gLzJfEq.jpg","adult":false,"overview":"The movie revolves around 4 siblings living in the fishing hamlet of Kumbalangi.","release_date":"2019-02-07"},{"vote_count":6,"id":566100,"video":false,"vote_average":8.7,"title":"Keluarga Cemara","popularity":36.209,"poster_path":"\/kerkbmW33NsmTXH9Rkadj5caDXR.jpg","original_language":"id","original_title":"Keluarga Cemara","genre_ids":[10751,18],"backdrop_path":"\/fFA4uuNaEzk2omaxRRZg30azy2P.jpg","adult":false,"overview":"Tells about Abah and Emak who have to face problems. Then their two children, Euis and Ara must face the new situation that befell their family. Euis who had to change schools and adapt to her new friends, and Abah who had to change jobs. A simple family story full of warmth and affection.","release_date":"2019-01-03"},{"vote_count":7,"id":393624,"video":false,"vote_average":8.5,"title":"Official Secrets","popularity":1.877,"poster_path":"\/9NO0fV0flQiiHLNsznKiUIX7HYy.jpg","original_language":"en","original_title":"Official Secrets","genre_ids":[18,53],"backdrop_path":null,"adult":false,"overview":"The true story of British intelligence whistle- blower Katharine Gun, who prior to the 2003 Iraq invasion leaked a top-secret NSA memo exposing a joint US-UK illegal spying operation against members of the UN Security Council. The memo proposed blackmailing member states into voting for war.","release_date":"2019-01-28"},{"vote_count":157,"id":484468,"video":false,"vote_average":8.3,"title":"The Wolf's Call","popularity":15.536,"poster_path":"\/hy2rqt5TezQUnca8k1HZalQzqHs.jpg","original_language":"fr","original_title":"Le chant du loup","genre_ids":[53,18],"backdrop_path":"\/vadfaj3hqzgDFTSdWUMp5onELPK.jpg","adult":false,"overview":"Thriller set in the milieu of French nuclear submarines.","release_date":"2019-02-20"}]}