{"page":1,"total_results":916,"total_pages":46,"results":[{"vote_count":1688,"id":450465,"video":false,"vote_average":6.6,"title":"Glass","popularity":184.061,"poster_path":"\/svIDTNUoajS8dLEo7EosxvyAsgJ.jpg","original_language":"en","original_title":"Glass","genre_ids":[53,9648,18,14],"backdrop_path":"\/lvjscO8wmpEbIfOEZi92Je8Ktlg.jpg","adult":false,"overview":"In a series of escalating encounters, security guard David Dunn uses his supernatural abilities to track Kevin Wendell Crumb, a disturbed man who has twenty-four personalities. Meanwhile, the shadowy presence of Elijah Price emerges as an orchestrator who holds secrets critical to both men.","release_date":"2019-01-16"},{"vote_count":62,"id":445629,"video":false,"vote_average":6.5,"title":"Fighting with My Family","popularity":178.432,"poster_path":"\/3TZCBAdKQiz0cGKGEjZiyZUA01O.jpg","original_language":"en","original_title":"Fighting with My Family","genre_ids":[35,18],"backdrop_path":"\/mYKP6qcDUimVMAHQWLOuDHjO19S.jpg","adult":false,"overview":"Born into a tight-knit wrestling family, Paige and her brother Zak are ecstatic when they get the once-in-a-lifetime opportunity to try out for the WWE. But when only Paige earns a spot in the competitive training program, she must leave her loved ones behind and face this new cutthroat world alone. Paige's journey pushes her to dig deep and ultimately prove to the world that what makes her different is the very thing that can make her a star.","release_date":"2019-02-14"},{"vote_count":221,"id":438650,"video":false,"vote_average":5.2,"title":"Cold Pursuit","popularity":93.453,"poster_path":"\/hXgmWPd1SuujRZ4QnKLzrj79PAw.jpg","original_language":"en","original_title":"Cold Pursuit","genre_ids":[53,28,18],"backdrop_path":"\/7Wg6FOEvhduISlxSzSCutAl4lPq.jpg","adult":false,"overview":"Nels Coxman's quiet life comes crashing down when his beloved son dies under mysterious circumstances. His search for the truth soon becomes a quest for revenge as he seeks coldblooded justice against a drug lord and his inner circle.","release_date":"2019-02-07"},{"vote_count":136,"id":452832,"video":false,"vote_average":4.9,"title":"Serenity","popularity":93.058,"poster_path":"\/hgWAcic93phg4DOuQ8NrsgQWiqu.jpg","original_language":"en","original_title":"Serenity","genre_ids":[53,18,9648,878],"backdrop_path":"\/oOROXoQ402tHgK6NowmMUSLffkW.jpg","adult":false,"overview":"Baker Dill is a fishing boat captain leading tours off a tranquil, tropical enclave called Plymouth Island. His quiet life is shattered, however, when his ex-wife Karen tracks him down with a desperate plea for help.","release_date":"2019-01-24"},{"vote_count":6,"id":568709,"video":false,"vote_average":6.6,"title":"Preman Pensiun","popularity":56.476,"poster_path":"\/7xfWyoz4SF5LHZ713eMtC2aZ0lT.jpg","original_language":"id","original_title":"Preman Pensiun","genre_ids":[35,18],"backdrop_path":"\/rrznEEdi4OVPsrqbEgmCE7nzjPs.jpg","adult":false,"overview":"","release_date":"2019-01-17"},{"vote_count":19,"id":581420,"video":false,"vote_average":7.1,"title":"Walk. Ride. Rodeo.","popularity":45.174,"poster_path":"\/abAharR0CpdGp68lU0846idLKRy.jpg","original_language":"fr","original_title":"Walk. Ride. Rodeo.","genre_ids":[18],"backdrop_path":"\/MsGAnPTwGKTbi70jiaA6m8I4sT.jpg","adult":false,"overview":"","release_date":"2019-03-08"},{"vote_count":577,"id":433249,"video":false,"vote_average":4.8,"title":"IO","popularity":38.811,"poster_path":"\/utH781EwjzzXQC6fZUO3cw8L5Ht.jpg","original_language":"en","original_title":"IO","genre_ids":[878,18,12,10749],"backdrop_path":"\/tirhxzSR6g1A9Iayo2lpYW4luUF.jpg","adult":false,"overview":"As a young scientist searches for a way to save a dying Earth, she finds a connection with a man who's racing to catch the last shuttle off the planet.","release_date":"2019-01-18"},{"vote_count":6,"id":566100,"video":false,"vote_average":8.7,"title":"Keluarga Cemara","popularity":36.209,"poster_path":"\/kerkbmW33NsmTXH9Rkadj5caDXR.jpg","original_language":"id","original_title":"Keluarga Cemara","genre_ids":[10751,18],"backdrop_path":"\/fFA4uuNaEzk2omaxRRZg30azy2P.jpg","adult":false,"overview":"Tells about Abah and Emak who have to face problems. Then their two children, Euis and Ara must face the new situation that befell their family. Euis who had to change schools and adapt to her new friends, and Abah who had to change jobs. A simple family story full of warmth and affection.","release_date":"2019-01-03"},{"vote_count":612,"id":483906,"video":false,"vote_average":6.3,"title":"Polar","popularity":32.292,"poster_path":"\/qOBEpKVLl8Q9CZScbOcRRVISezV.jpg","original_language":"en","original_title":"Polar","genre_ids":[28,80,18],"backdrop_path":"\/u8CP7EeWbYMlIVqEoKAt6OYsEe1.jpg","adult":false,"overview":"When a retiring assassin realizes that he is the target of a hit, he winds up back in the game going head to head with a gang of younger, ruthless killers.","release_date":"2019-01-25"},{"vote_count":92,"id":491480,"video":false,"vote_average":8,"title":"The Boy Who Harnessed the Wind","popularity":32.102,"poster_path":"\/yOr7RxHw15MMXNxGMXSmngDqHyI.jpg","original_language":"en","original_title":"The Boy Who Harnessed the Wind","genre_ids":[18],"backdrop_path":"\/hpGkXl6iNdtQLXHS7xiv57N217B.jpg","adult":false,"overview":"Against all the odds, a thirteen year old boy in Malawi invents an unconventional way to save his family and village from famine.","release_date":"2019-03-01"},{"vote_count":5,"id":411139,"video":false,"vote_average":6,"title":"I'm Not Here","popularity":26.27,"poster_path":"\/zyJyNCoR4rVi5OEYniLEOxYCM4b.jpg","original_language":"en","original_title":"I'm Not Here","genre_ids":[18],"backdrop_path":"\/it84LlN7BLslsZk3WnTRmTttc9H.jpg","adult":false,"overview":"A man struggles with the tragic memories of his past to make sense of his present, but soon realizes that time isn't the enemy he thinks it is.","release_date":"2019-03-08"},{"vote_count":0,"id":565348,"video":false,"vote_average":0,"title":"Adopt a Highway","popularity":24.035,"poster_path":"\/dvI8rSgnjoSQtiMq0rO1np6N0iG.jpg","original_language":"en","original_title":"Adopt a Highway","genre_ids":[18],"backdrop_path":null,"adult":false,"overview":"An ex-felon discovers a live baby left in a dumpster.","release_date":"2019-03-10"},{"vote_count":74,"id":449459,"video":false,"vote_average":5.6,"title":"The Vanishing","popularity":23.004,"poster_path":"\/5HKn2CecRi2OlyC3T6FZz4QqkW5.jpg","original_language":"en","original_title":"The Vanishing","genre_ids":[53,18,9648],"backdrop_path":"\/jK4m8gjLT5D2PNwoC0jJ0dGmWMu.jpg","adult":false,"overview":"Three lighthouse keepers on an uninhabited island off the coast of Scotland discover something that isn't theirs to keep.","release_date":"2019-01-04"},{"vote_count":93,"id":440472,"video":false,"vote_average":7.5,"title":"The Upside","popularity":22.653,"poster_path":"\/hPZ2caow1PCND6qnerfgn6RTXdm.jpg","original_language":"en","original_title":"The Upside","genre_ids":[35,18],"backdrop_path":"\/mdGUvN7yCyExPNO5f4zAzifk1l1.jpg","adult":false,"overview":"Phillip is a wealthy quadriplegic who needs a caretaker to help him with his day-to-day routine in his New York penthouse. He decides to hire Dell, a struggling parolee who's trying to reconnect with his ex and his young son. Despite coming from two different worlds, an unlikely friendship starts to blossom.","release_date":"2019-01-10"},{"vote_count":59,"id":510498,"video":false,"vote_average":5.6,"title":"High Flying Bird","popularity":21.343,"poster_path":"\/ccE21xixa1zhkGtWDr4n8ReOp40.jpg","original_language":"en","original_title":"High Flying Bird","genre_ids":[18],"backdrop_path":"\/4t3ELPWvb7afiY9dFUqIdZIlTbT.jpg","adult":false,"overview":"During an NBA lockout, a sports agent, Ray Burke, presents his rookie client, Erick Scott, with an intriguing and controversial business opportunity.","release_date":"2019-01-27"},{"vote_count":0,"id":536331,"video":false,"vote_average":0,"title":"April, May en June","popularity":21.202,"poster_path":null,"original_language":"nl","original_title":"April, May en June","genre_ids":[18],"backdrop_path":null,"adult":false,"overview":"","release_date":"2019-03-11"},{"vote_count":2,"id":492565,"video":false,"vote_average":0,"title":"The Kid","popularity":20.954,"poster_path":"\/u5zdFoc7Nw5ZkWmhTXMoT2IgRVq.jpg","original_language":"en","original_title":"The Kid","genre_ids":[37,18],"backdrop_path":"\/glw64Bg2qVdpO0z2TKTMnhGKUhd.jpg","adult":false,"overview":"The story of a young boy who witnesses Billy The Kid's encounter with Sheriff Pat Garrett.","release_date":"2019-03-08"},{"vote_count":0,"id":576003,"video":false,"vote_average":0,"title":"Ms. White Light","popularity":20.909,"poster_path":null,"original_language":"en","original_title":"Ms. White Light","genre_ids":[35,18],"backdrop_path":null,"adult":false,"overview":"Ms. White Light is the story of Lex Cordova, a young woman who counsels terminally ill clients that have trouble letting go. While proving uniquely talented in her ability to connect with the dying, Lex is at a total loss when it comes to dealing with everyone else. When Valerie, a sharp-tongued free spirit who simply has no time for her own mortality, refuses to play by Lex's rules, Lex is forced to question her own decisions, and must decide if the business of dying is truly worth it...even at the cost of living her life.","release_date":"2019-03-11"},{"vote_count":0,"id":575682,"video":false,"vote_average":0,"title":"Pig Hag","popularity":20.617,"poster_path":null,"original_language":"en","original_title":"Pig Hag","genre_ids":[18],"backdrop_path":null,"adult":false,"overview":"Jodie, a woman in her mid-thirties, struggles with the pressure to find a partner and have children. When she attends a Guns N’ Roses concert, she thinks she may have met a potential match — until he immediately ghosts on her.","release_date":"2019-03-10"},{"vote_count":0,"id":576002,"video":false,"vote_average":0,"title":"Alice","popularity":20.609,"poster_path":null,"original_language":"fr","original_title":"Alice","genre_ids":[18],"backdrop_path":null,"adult":false,"overview":"Alice, a perfect wife and mother who lives happily with her husband and child until the day she discovers her husband is living a double life that has ruined her financially and left her a single mother. Alice fights back and dives into a world beyond anything she has ever known.","release_date":"2019-03-10"}]}