{"page":1,"total_results":162,"total_pages":9,"results":[{"vote_count":19,"id":581420,"video":false,"vote_average":7.1,"title":"Walk. Ride. Rodeo.","popularity":45.174,"poster_path":"\/abAharR0CpdGp68lU0846idLKRy.jpg","original_language":"fr","original_title":"Walk. Ride. Rodeo.","genre_ids":[18],"backdrop_path":"\/MsGAnPTwGKTbi70jiaA6m8I4sT.jpg","adult":false,"overview":"","release_date":"2019-03-08"},{"vote_count":92,"id":491480,"video":false,"vote_average":8,"title":"The Boy Who Harnessed the Wind","popularity":32.102,"poster_path":"\/yOr7RxHw15MMXNxGMXSmngDqHyI.jpg","original_language":"en","original_title":"The Boy Who Harnessed the Wind","genre_ids":[18],"backdrop_path":"\/hpGkXl6iNdtQLXHS7xiv57N217B.jpg","adult":false,"overview":"Against all the odds, a thirteen year old boy in Malawi invents an unconventional way to save his family and village from famine.","release_date":"2019-03-01"},{"vote_count":5,"id":411139,"video":false,"vote_average":6,"title":"I'm Not Here","popularity":26.27,"poster_path":"\/zyJyNCoR4rVi5OEYniLEOxYCM4b.jpg","original_language":"en","original_title":"I'm Not Here","genre_ids":[18],"backdrop_path":"\/it84LlN7BLslsZk3WnTRmTttc9H.jpg","adult":false,"overview":"A man struggles with the tragic memories of his past to make sense of his present, but soon realizes that time isn't the enemy he thinks it is.","release_date":"2019-03-08"},{"vote_count":0,"id":565348,"video":false,"vote_average":0,"title":"Adopt a Highway","popularity":24.035,"poster_path":"\/dvI8rSgnjoSQtiMq0rO1np6N0iG.jpg","original_language":"en","original_title":"Adopt a Highway","genre_ids":[18],"backdrop_path":null,"adult":false,"overview":"An ex-felon discovers a live baby left in a dumpster.","release_date":"2019-03-10"},{"vote_count":0,"id":536331,"video":false,"vote_average":0,"title":"April, May en June","popularity":21.202,"poster_path":null,"original_language":"nl","original_title":"April, May en June","genre_ids":[18],"backdrop_path":null,"adult":false,"overview":"","release_date":"2019-03-11"},{"vote_count":2,"id":492565,"video":false,"vote_average":0,"title":"The Kid","popularity":20.954,"poster_path":"\/u5zdFoc7Nw5ZkWmhTXMoT2IgRVq.jpg","original_language":"en","original_title":"The Kid","genre_ids":[37,18],"backdrop_path":"\/glw64Bg2qVdpO0z2TKTMnhGKUhd.jpg","adult":false,"overview":"The story of a young boy who witnesses Billy The Kid's encounter with Sheriff Pat Garrett.","release_date":"2019-03-08"},{"vote_count":0,"id":576003,"video":false,"vote_average":0,"title":"Ms. White Light","popularity":20.909,"poster_path":null,"original_language":"en","original_title":"Ms. White Light","genre_ids":[35,18],"backdrop_path":null,"adult":false,"overview":"Ms. White Light is the story of Lex Cordova, a young woman who counsels terminally ill clients that have trouble letting go. While proving uniquely talented in her ability to connect with the dying, Lex is at a total loss when it comes to dealing with everyone else. When Valerie, a sharp-tongued free spirit who simply has no time for her own mortality, refuses to play by Lex's rules, Lex is forced to question her own decisions, and must decide if the business of dying is truly worth it...even at the cost of living her life.","release_date":"2019-03-11"},{"vote_count":0,"id":575682,"video":false,"vote_average":0,"title":"Pig Hag","popularity":20.617,"poster_path":null,"original_language":"en","original_title":"Pig Hag","genre_ids":[18],"backdrop_path":null,"adult":false,"overview":"Jodie, a woman in her mid-thirties, struggles with the pressure to find a partner and have children. When she attends a Guns N’ Roses concert, she thinks she may have met a potential match — until he immediately ghosts on her.","release_date":"2019-03-10"},{"vote_count":0,"id":576002,"video":false,"vote_average":0,"title":"Alice","popularity":20.609,"poster_path":null,"original_language":"fr","original_title":"Alice","genre_ids":[18],"backdrop_path":null,"adult":false,"overview":"Alice, a perfect wife and mother who lives happily with her husband and child until the day she discovers her husband is living a double life that has ruined her financially and left her a single mother. Alice fights back and dives into a world beyond anything she has ever known.","release_date":"2019-03-10"},{"vote_count":0,"id":576005,"video":false,"vote_average":0,"title":"Saint Frances","popularity":18.876,"poster_path":null,"original_language":"en","original_title":"Saint Frances","genre_ids":[35,18],"backdrop_path":null,"adult":false,"overview":"At the start of the summer, Bridget has an abortion just as she lands a much-needed job in affluent Evanston, Illinois — nannying a six-year old.","release_date":"2019-03-11"},{"vote_count":17,"id":471506,"video":false,"vote_average":5.9,"title":"Greta","popularity":16.931,"poster_path":"\/6Lgk1OGexD0fU8QqDBQHcvEwd1Z.jpg","original_language":"en","original_title":"Greta","genre_ids":[53,18],"backdrop_path":"\/d8JDBB98W3dKw6qugJcPzrG5hRA.jpg","adult":false,"overview":"A young woman returns an elderly widow’s lost purse, leading to an unlikely relationship between the two — until the young woman discovers her elder might not be all that she seems.","release_date":"2019-02-28"},{"vote_count":1,"id":551430,"video":false,"vote_average":0,"title":"Incel","popularity":16.614,"poster_path":"\/kBDJBtncA1HYIvoJZ1wkQDpB0Xc.jpg","original_language":"en","original_title":"Incel","genre_ids":[18],"backdrop_path":null,"adult":false,"overview":"Sam is a reclusive young man who finds solace with those who share the same self-described title as him: Incel. When his countless real-life efforts at love fail, Sam turns to this anonymous community of the “involuntarily celibate” for help, but instead finds himself increasingly pushed towards extremism.","release_date":"2019-03-09"},{"vote_count":8,"id":538207,"video":false,"vote_average":6.3,"title":"We Die Young","popularity":15.958,"poster_path":"\/dB0Dl2nDRmvplaJLeHSfkppJXHs.jpg","original_language":"en","original_title":"We Die Young","genre_ids":[18],"backdrop_path":"\/mYU1NFj8U99yX4sXEGcvEGQ7RQG.jpg","adult":false,"overview":"Lucas, a 14-year-old boy inducted into the gang life in Washington D.C., is determined that his 10-year-old brother won't follow the same path. When an Afghanistan war veteran comes into the neighborhood, an opportunity arises.","release_date":"2019-03-01"},{"vote_count":0,"id":576704,"video":false,"vote_average":0,"title":"Jezebel","popularity":15.592,"poster_path":"\/3qx0JD0KvXWRT8hA5vswaaQ3I2m.jpg","original_language":"en","original_title":"Jezebel","genre_ids":[18,10751],"backdrop_path":null,"adult":false,"overview":"A true story. In the last days of her mother’s life, 19-year-old Tiffany crashes with five family members in a Las Vegas studio apartment. In order to make ends meet, her sister, a phone sex operator, introduces her to the world of fetish cam girls.","release_date":"2019-03-09"},{"vote_count":157,"id":484468,"video":false,"vote_average":8.3,"title":"The Wolf's Call","popularity":15.536,"poster_path":"\/hy2rqt5TezQUnca8k1HZalQzqHs.jpg","original_language":"fr","original_title":"Le chant du loup","genre_ids":[53,18],"backdrop_path":"\/vadfaj3hqzgDFTSdWUMp5onELPK.jpg","adult":false,"overview":"Thriller set in the milieu of French nuclear submarines.","release_date":"2019-02-20"},{"vote_count":22,"id":566454,"video":false,"vote_average":6.6,"title":"The Mystery of Henri Pick","popularity":15.051,"poster_path":"\/vBiGobwwheZL5Zl7h07RaACRsFh.jpg","original_language":"fr","original_title":"Le Mystère Henri Pick","genre_ids":[18],"backdrop_path":"\/6ytu4enqLbAYhPMSWpfyAp7U5pq.jpg","adult":false,"overview":"","release_date":"2019-03-06"},{"vote_count":0,"id":575958,"video":false,"vote_average":0,"title":"Mickey and the Bear","popularity":14.919,"poster_path":"\/c88D7e2Rdc6ZAIoC4ti9ruIiAB5.jpg","original_language":"en","original_title":"Mickey and the Bear","genre_ids":[18],"backdrop_path":null,"adult":false,"overview":"In Anaconda, Montana, a strong-willed teenage girl navigates a loving but volatile relationship with her veteran father. In a desperate search for independence and her own identity, she risks family, heartbreak, and her standing in the only place she can call home.","release_date":"2019-03-09"},{"vote_count":0,"id":576013,"video":false,"vote_average":0,"title":"South Mountain","popularity":14.76,"poster_path":null,"original_language":"en","original_title":"South Mountain","genre_ids":[18],"backdrop_path":null,"adult":false,"overview":"When her teenagers head off to camp and her husband abruptly leaves her to begin a new family, Lila is left to her own curious and chaotic devices for a summer in her rural home in the Catskill mountains.","release_date":"2019-03-11"},{"vote_count":1,"id":581361,"video":false,"vote_average":7,"title":"Badla","popularity":13.459,"poster_path":"\/eKpzbERuhogYTwI3PwfVsAHXnuO.jpg","original_language":"hi","original_title":"बदला","genre_ids":[80,18,9648],"backdrop_path":"\/okhoiuVn0GpmlreE6wuHR7qTRby.jpg","adult":false,"overview":"A dynamic young entrepreneur finds herself locked in a hotel room with the corpse of her dead lover. She hires a prestigious lawyer to defend her and they work together to figure out what actually happened.","release_date":"2019-03-08"},{"vote_count":0,"id":514894,"video":false,"vote_average":0,"title":"Baby Jane","popularity":13.184,"poster_path":"\/a6P4ReiHwenkbCtJIrSegQ3Ao3i.jpg","original_language":"fi","original_title":"Baby Jane","genre_ids":[18,10749],"backdrop_path":"\/e1tRpsollEtJR6FOl8jWPufLQB3.jpg","adult":false,"overview":"Jane, a small-town girl, has moved to Helsinki and the world is finally open for her. Passionate and excited, she seeks adventure, all the things she has yearned for so long. Jane gravitates to a gay bar at night, staggers in her nervous state of mind, and suddenly there, right next to her, Jane finds her savior: Piki, the most dashing butch in town. Piki is perfect. Jane is hypnotized by Piki's dark-toned voice. Piki offers her an entire new universe, and even more - dreams.","release_date":"2019-03-08"}]}